%YAML 1.1
%TAG !u! tag:unity3d.com,2011:
--- !u!1 &1808044482420249685
GameObject:
  m_ObjectHideFlags: 0
  m_CorrespondingSourceObject: {fileID: 0}
  m_PrefabInstance: {fileID: 0}
  m_PrefabAsset: {fileID: 0}
  serializedVersion: 6
  m_Component:
  - component: {fileID: 3752165591810289140}
  m_Layer: 0
  m_Name: Particulas
  m_TagString: Untagged
  m_Icon: {fileID: 0}
  m_NavMeshLayer: 0
  m_StaticEditorFlags: 0
  m_IsActive: 1
--- !u!4 &3752165591810289140
Transform:
  m_ObjectHideFlags: 0
  m_CorrespondingSourceObject: {fileID: 0}
  m_PrefabInstance: {fileID: 0}
  m_PrefabAsset: {fileID: 0}
  m_GameObject: {fileID: 1808044482420249685}
  m_LocalRotation: {x: 0, y: 0, z: 0, w: 1}
  m_LocalPosition: {x: 245.98167, y: 190.35497, z: 228.75}
  m_LocalScale: {x: 1, y: 1, z: 1}
  m_Children:
  - {fileID: 5478901401017774807}
  m_Father: {fileID: 0}
  m_RootOrder: 0
  m_LocalEulerAnglesHint: {x: 0, y: 0, z: 0}
--- !u!1001 &5478290886801346373
PrefabInstance:
  m_ObjectHideFlags: 0
  serializedVersion: 2
  m_Modification:
    m_TransformParent: {fileID: 3752165591810289140}
    m_Modifications:
    - target: {fileID: 1781930563638536, guid: daa6cceb1b087d74aad6916dac2805ea, type: 3}
      propertyPath: m_Name
      value: CFX2_Wandering_Spirits
      objectReference: {fileID: 0}
    - target: {fileID: 4005808538926482, guid: daa6cceb1b087d74aad6916dac2805ea, type: 3}
      propertyPath: m_LocalPosition.x
      value: -7.019882
      objectReference: {fileID: 0}
    - target: {fileID: 4005808538926482, guid: daa6cceb1b087d74aad6916dac2805ea, type: 3}
      propertyPath: m_LocalPosition.y
      value: -4.386566
      objectReference: {fileID: 0}
    - target: {fileID: 4005808538926482, guid: daa6cceb1b087d74aad6916dac2805ea, type: 3}
      propertyPath: m_LocalPosition.z
      value: -228.75
      objectReference: {fileID: 0}
    - target: {fileID: 4005808538926482, guid: daa6cceb1b087d74aad6916dac2805ea, type: 3}
      propertyPath: m_LocalRotation.x
      value: -0
      objectReference: {fileID: 0}
    - target: {fileID: 4005808538926482, guid: daa6cceb1b087d74aad6916dac2805ea, type: 3}
      propertyPath: m_LocalRotation.y
      value: -0
      objectReference: {fileID: 0}
    - target: {fileID: 4005808538926482, guid: daa6cceb1b087d74aad6916dac2805ea, type: 3}
      propertyPath: m_LocalRotation.z
      value: -0
      objectReference: {fileID: 0}
    - target: {fileID: 4005808538926482, guid: daa6cceb1b087d74aad6916dac2805ea, type: 3}
      propertyPath: m_LocalRotation.w
      value: 1
      objectReference: {fileID: 0}
    - target: {fileID: 4005808538926482, guid: daa6cceb1b087d74aad6916dac2805ea, type: 3}
      propertyPath: m_RootOrder
      value: 0
      objectReference: {fileID: 0}
    - target: {fileID: 4005808538926482, guid: daa6cceb1b087d74aad6916dac2805ea, type: 3}
      propertyPath: m_LocalEulerAnglesHint.x
      value: 0
      objectReference: {fileID: 0}
    - target: {fileID: 4005808538926482, guid: daa6cceb1b087d74aad6916dac2805ea, type: 3}
      propertyPath: m_LocalEulerAnglesHint.y
      value: 0
      objectReference: {fileID: 0}
    - target: {fileID: 4005808538926482, guid: daa6cceb1b087d74aad6916dac2805ea, type: 3}
      propertyPath: m_LocalEulerAnglesHint.z
      value: 0
      objectReference: {fileID: 0}
    m_RemovedComponents: []
  m_SourcePrefab: {fileID: 100100000, guid: daa6cceb1b087d74aad6916dac2805ea, type: 3}
--- !u!4 &5478901401017774807 stripped
Transform:
  m_CorrespondingSourceObject: {fileID: 4005808538926482, guid: daa6cceb1b087d74aad6916dac2805ea,
    type: 3}
  m_PrefabInstance: {fileID: 5478290886801346373}
  m_PrefabAsset: {fileID: 0}
